[gd_scene load_steps=8 format=2]

[ext_resource path="res://arena/polaroid/Polaroid.gd" type="Script" id=1]
[ext_resource path="res://assets/sfx/polaroid_shutter.wav" type="AudioStream" id=2]
[ext_resource path="res://assets/textures/polaroid-frame.png" type="Texture" id=3]

[sub_resource type="RectangleShape2D" id=1]
extents = Vector2( 360, 180 )

[sub_resource type="RectangleShape2D" id=2]
extents = Vector2( 256.894, 178.696 )

[sub_resource type="Shader" id=3]
code = "shader_type canvas_item;

void fragment() {
	COLOR = textureLod(SCREEN_TEXTURE, SCREEN_UV, 4.5);
}"

[sub_resource type="ShaderMaterial" id=4]
shader = SubResource( 3 )

[node name="Polaroid" type="KinematicBody2D" groups=[
"polaroid",
]]
z_index = 100
z_as_relative = false
collision_layer = 0
collision_mask = 16
script = ExtResource( 1 )

[node name="CollisionShape2D" type="CollisionShape2D" parent="."]
shape = SubResource( 1 )

[node name="Frame" type="Polygon2D" parent="."]
color = Color( 0.356863, 0.32549, 0.352941, 0 )
polygon = PoolVector2Array( -360, -220, 360, -220, 360, 220, -360, 220, -360, -220, -320, -180, -320, 180, 320, 180, 320, -180, -320, -180 )

[node name="Sprite" type="Sprite" parent="Frame"]
position = Vector2( -0.0697397, -0.00570774 )
scale = Vector2( 0.583536, 0.581873 )
texture = ExtResource( 3 )

[node name="Flash" type="Polygon2D" parent="."]
modulate = Color( 1, 1, 1, 0 )
polygon = PoolVector2Array( -320, -180, 320, -180, 320, 180, -320, 180 )

[node name="Tween" type="Tween" parent="."]

[node name="SnapArea" type="Area2D" parent="."]
collision_layer = 4
collision_mask = 6

[node name="CollisionShape2D" type="CollisionShape2D" parent="SnapArea"]
position = Vector2( -42.3785, -2.11893 )
shape = SubResource( 2 )

[node name="Blur" type="Polygon2D" parent="."]
material = SubResource( 4 )
polygon = PoolVector2Array( -1280, -720, -1049.41, -720, 1280, -720, 1280, 720, -1280, 720, -348.507, 202.781, -346.072, 205.404, -341.951, 209.149, -337.269, 213.082, -332.774, 215.704, -326.968, 218.139, -320.413, 220.012, 323.798, 220.001, 329.691, 218.181, 336.145, 214.252, 341.477, 209.762, 346.808, 204.711, 351.859, 198.538, 354.946, 193.206, 358.033, 185.068, 360, 175.246, 360, -175.534, 357.676, -184.878, 355.006, -192.887, 351.001, -199.895, 346.663, -205.234, 341.991, -209.572, 334.983, -214.578, 327.642, -218.249, 319.3, -219.97, -313.75, -219.5, -321.25, -219, -329.25, -216.5, -335.75, -213.25, -340.25, -210.75, -344, -208, -347.75, -204.25, -351.5, -199, -355, -192.25, -357.761, -185.17, -359.096, -178.996, -359.763, -174.157, -359.982, 174.558, -358.981, 181.232, -356.56, 189.484, -354.125, 194.915, -351.503, 199.223, -348.507, 202.781, -1280, 720 )

[node name="ShutterSFX" type="AudioStreamPlayer2D" parent="."]
stream = ExtResource( 2 )

[node name="ProgressBar" type="ProgressBar" parent="."]
margin_left = -120.0
margin_top = 240.0
margin_right = 120.0
margin_bottom = 272.0
__meta__ = {
"_edit_use_anchors_": false
}
